{
  "type": "sqlite",
  "database": "db/main.db",
  "logging": true,
  "logger": "advanced-console",
  "entities": ["src/entities/**/*.ts"],
  "migrations": ["src/migrations/**/*.ts"],
  "subscribers": ["src/subscribers/**/*.ts"],
  "cli": {
    "entitiesDir": "src/entities",
    "migrationsDir": "src/migrations",
    "subscribersDir": "src/subscribers"
  }
}
